<svg width="16px" height="16px" viewBox="0 0 16 16" version="1.1" xmlns="http://www.w3.org/2000/svg" xmlns:xlink="http://www.w3.org/1999/xlink">
    <g id="Symbols" stroke="none" stroke-width="1" fill-rule="evenodd">
        <g id="Icons/Search">
            <path d="M2.18930181,6.40116468 C2.18930181,4.0755712 4.07458641,2.19108306 6.39961296,2.19108306 C8.72509853,2.19108306 10.6103544,4.0755712 10.6103544,6.40116468 C10.6103544,8.72678686 8.72506984,10.6121357 6.39961296,10.6121357 C4.07458641,10.6121357 2.18930181,8.72678686 2.18930181,6.40116468 L2.18930181,6.40116468 Z M15.9991875,14.1899063 L11.7386562,9.92934375 C12.4090312,8.91671875 12.7991562,7.70478125 12.7991562,6.40015625 C12.7991562,2.865125 9.9340625,-8.8817842e-15 6.39959375,-8.8817842e-15 C2.8650625,-8.8817842e-15 -1.91846539e-13,2.865125 -1.91846539e-13,6.40015625 C-1.91846539e-13,9.93421875 2.86509375,12.8003125 6.39959375,12.8003125 C7.7036875,12.8003125 8.9170625,12.4087813 9.92871875,11.7388437 L14.1892187,15.9994063 L15.9991875,14.1899063 Z" id="Fill-1"></path>
        </g>
    </g>
</svg>